…
``` r
plots_month_df=
  read_csv("./data/fivethirtyeight_datasets/pols-month.csv",show_col_types = FALSE) %>%
  janitor::clean_names() %>% 
  separate(mon,into=c("year","month","day"),sep="-") %>% 
  mutate_at(vars(year, month, day), as.numeric) %>% 
  mutate(month=recode(month, '01'="January" , '02'="February",'03'="March",'04'="April","05"="May","06"="June","07"="July","08"="August","09"="Septemer","10"="October","11"="November","12"="December")) %>% 
   mutate(president = recode(prez_gop, "0" = "dem", "1" = "gop", "2" = "gop")) %>% 
  select(year, month, everything(), -day, -starts_with("prez"))

plots_month_df
```

    ## # A tibble: 822 × 9
    ##     year month    gov_gop sen_gop rep_gop gov_dem sen_dem rep_dem president
    ##    <dbl> <chr>      <dbl>   <dbl>   <dbl>   <dbl>   <dbl>   <dbl> <chr>    
    ##  1  1947 January       23      51     253      23      45     198 dem      
    ##  2  1947 February      23      51     253      23      45     198 dem      
    ##  3  1947 March         23      51     253      23      45     198 dem      
    ##  4  1947 April         23      51     253      23      45     198 dem      
    ##  5  1947 May           23      51     253      23      45     198 dem      
    ##  6  1947 June          23      51     253      23      45     198 dem      
    ##  7  1947 July          23      51     253      23      45     198 dem      
    ##  8  1947 August        23      51     253      23      45     198 dem      
    ##  9  1947 Septemer      23      51     253      23      45     198 dem      
    ## 10  1947 October       23      51     253      23      45     198 dem      
    ## # ℹ 812 more rows
…
    ## Rows: 787 Columns: 2
    ## ── Column specification ────────────────────────────────────────────────────────
    ## Delimiter: ","
    ## chr (1): date
    ## dbl (1): close
    ## 
    ## ℹ Use `spec()` to retrieve the full column specification for this data.
    ## ℹ Specify the column types or set `show_col_types = FALSE` to quiet this message.

``` r
snp
```

    ## # A tibble: 787 × 3
    ##     year month     close
    ##    <int> <chr>     <dbl>
    ##  1     0 January   1394.
    ##  2     0 February  1366.
    ##  3     0 March     1499.
    ##  4     0 April     1452.
    ##  5     0 May       1421.
    ##  6     0 June      1455.
    ##  7     0 July      1431.
    ##  8     0 August    1518.
    ##  9     0 September 1437.
    ## 10     0 October   1429.
    ## # ℹ 777 more rows
